…
    ## Warning: `cols` is now required when using unnest().
    ## Please use `cols = c(steps)`

``` r
fisher6
```

    ## # A tibble: 58,377 × 16
    ##       id burst_      x1_    x2_    y1_    y2_    sl_     ta_ t1_                
    ##    <dbl>  <dbl>    <dbl>  <dbl>  <dbl>  <dbl>  <dbl>   <dbl> <dttm>             
    ##  1  1072      4 1784400. 1.78e6 2.41e6 2.41e6  83.3   2.79   2011-02-11 19:50:58
    ##  2  1072      4 1784400. 1.78e6 2.41e6 2.41e6  34.8  -0.619  2011-02-11 19:50:58
    ##  3  1072      4 1784400. 1.78e6 2.41e6 2.41e6   1.37 -0.942  2011-02-11 19:50:58
    ##  4  1072      4 1784400. 1.78e6 2.41e6 2.41e6  75.3  -1.78   2011-02-11 19:50:58
    ##  5  1072      4 1784400. 1.78e6 2.41e6 2.41e6 201.   -2.85   2011-02-11 19:50:58
    ##  6  1072      4 1784400. 1.78e6 2.41e6 2.41e6 148.   -2.24   2011-02-11 19:50:58
    ##  7  1072      4 1784400. 1.78e6 2.41e6 2.41e6   6.04  2.32   2011-02-11 19:50:58
    ##  8  1072      4 1784400. 1.78e6 2.41e6 2.41e6  60.4  -0.0155 2011-02-11 19:50:58
    ##  9  1072      4 1784400. 1.78e6 2.41e6 2.41e6   1.06 -0.448  2011-02-11 19:50:58
    ## 10  1072      4 1784400. 1.78e6 2.41e6 2.41e6 113.    1.82   2011-02-11 19:50:58
    ## # … with 58,367 more rows, and 7 more variables: t2_ <dttm>, dt_ <drtn>,
    ## #   case_ <lgl>, step_id_ <dbl>, landuse_start <dbl>, landuse_end <fct>,
    ## #   unique_step <chr>
…
